{
  "name": "OZMT-ozmt",
  "version": "0.1.0",
  "author": "Chip Schweiss",
  "summary": "Puppet module for installing OZMT",
  "license": "GPLv2",
  "source": "https://bitbucket.org/ozmt/puppet_module_ozmt",
  "project_page": null,
  "issues_url": null,
  "dependencies": [
    { "name":"puppetlabs-stdlib","version_requirement":">= 4.6.0" },
    { "name":"puppetlabs-vcsrepo","version_requirement":">= 1.3.0" }
  ],
  "operatingsystem_support": [
    {
      "operatingsystem": "RedHat",
      "operatingsystemrelease": [
        "6",
        "7"
      ]
    },
    {
      "operatingsystem": "CentOS",
      "operatingsystemrelease": [
        "6",
        "7"
      ]
    },
    {
      "operatingsystem": "Solaris",
      "operatingsystemrelease": [
        "11"
      ]
    },
    {
      "operatingsystem": "Illumos",
      "operatingsystemrelease": [
        "11"
      ]
    },
    {
      "operatingsystem": "OmniOS",
      "operatingsystemrelease": [
        "5.11"
      ]
    }
  ],
  "requirements": [
    {
      "name": "puppet",
      "version_requirement": ">=4.0.0 < 5.0.0"
    }
  ],
  "data_provider": null
}

